Section 2 Materials | Genetic Interaction Network Interpretation (GINI): A Tidy Data Science Perspective
…
Gene expression
We obtained human tissue RNA-seq datasets (gene-centric expression level quantified as transcripts per million [TPM]) in the GTEx study (version 8). This study recruited ~1000 postmortem donors from which 49 tissues (each tissue with at least 70 donors/samples) were profiled using bulk RNA-seq. To aid in selecting tissue-specific expressed genes and their expression distribution within a tissue, we precalculated descriptive summary for each gene per tissue: ymin (the minimum TPM amongst the same tissue samples), lower (25% quantile), middle (i.e. median), upper (75% quantile) and ymax (the maximum TPM). This per-tissue gene summary data was represented as a tibble object (using the tibble package) and saved as an RData file GTEx_V8_TPM_boxplot.RData. Doing so this dataset, though much reduced in size, is still informative for further extraction of genes expressed in a tissue (filtering by ymin >= 1) and for boxplot visualisation of expression distribution.

GTEx_V8_TPM_boxplot
## # A tibble: 1,709,316 x 9
##    ENSG       Symbol  SMTSD           SMTS      ymin lower middle   upper   ymax
##    <chr>      <chr>   <chr>           <chr>    <dbl> <dbl>  <dbl>   <dbl>  <dbl>
##  1 ENSG00000… DDX11L1 Adipose - Subc… Adipose…     0     0      0 0       0.166 
##  2 ENSG00000… DDX11L1 Muscle - Skele… Muscle       0     0      0 0.0150  0.116 
##  3 ENSG00000… DDX11L1 Artery - Tibial Blood V…     0     0      0 0       0.130 
##  4 ENSG00000… DDX11L1 Artery - Coron… Blood V…     0     0      0 0       0.0710
##  5 ENSG00000… DDX11L1 Heart - Atrial… Heart        0     0      0 0.0143  0.138 
##  6 ENSG00000… DDX11L1 Adipose - Visc… Adipose…     0     0      0 0       0.127 
##  7 ENSG00000… DDX11L1 Uterus          Uterus       0     0      0 0.0244  0.148 
##  8 ENSG00000… DDX11L1 Vagina          Vagina       0     0      0 0.0202  0.118 
##  9 ENSG00000… DDX11L1 Breast - Mamma… Breast       0     0      0 0.00493 0.0744
## 10 ENSG00000… DDX11L1 Skin - Not Sun… Skin         0     0      0 0       0.114 
## # … with 1,709,306 more rows
